Como renomear colunas de uma tabela (data.frame) com o pacote dplyr? | Gustavo Paterno
…
Suponha que queremos modificar o nome da coluna “Species” e trocar por “SP”.

Comando sem dplyr

colnames(iris)[5] <- "sp"
iris

Comando com dplyr

iris <- rename(iris, SP = Species)
iris

## # A tibble: 150 x 5
##    Sepal.Length Sepal.Width Petal.Length Petal.Width SP    
##           <dbl>       <dbl>        <dbl>       <dbl> <fct> 
##  1          5.1         3.5          1.4         0.2 setosa
##  2          4.9         3            1.4         0.2 setosa
##  3          4.7         3.2          1.3         0.2 setosa
##  4          4.6         3.1          1.5         0.2 setosa
##  5          5           3.6          1.4         0.2 setosa
##  6          5.4         3.9          1.7         0.4 setosa
##  7          4.6         3.4          1.4         0.3 setosa
##  8          5           3.4          1.5         0.2 setosa
##  9          4.4         2.9          1.4         0.2 setosa
## 10          4.9         3.1          1.5         0.1 setosa
## # ... with 140 more rows

Agora suponha que queremos modificar o nome das colunas “Sepal.Length” e “Sepal.Width para “sepL”
e “sepW”.

iris <- rename(iris, sepL = Sepal.Length, sepW = Sepal.Width)
iris

## # A tibble: 150 x 5
##     sepL  sepW Petal.Length Petal.Width SP    
##    <dbl> <dbl>        <dbl>       <dbl> <fct> 
##  1   5.1   3.5          1.4         0.2 setosa
##  2   4.9   3            1.4         0.2 setosa
##  3   4.7   3.2          1.3         0.2 setosa
##  4   4.6   3.1          1.5         0.2 setosa
##  5   5     3.6          1.4         0.2 setosa
##  6   5.4   3.9          1.7         0.4 setosa
##  7   4.6   3.4          1.4         0.3 setosa
##  8   5     3.4          1.5         0.2 setosa
##  9   4.4   2.9          1.4         0.2 setosa
## 10   4.9   3.1          1.5         0.1 setosa
## # ... with 140 more rows

Agora suponha que queremos modificar o nome das colunas “Peal.Length” e “Peal.Width para “petL”
e “petW”.

iris <- rename(iris, petL = Petal.Length, petW = Petal.Width)
iris

## # A tibble: 150 x 5
##     sepL  sepW  petL  petW SP    
##    <dbl> <dbl> <dbl> <dbl> <fct> 
##  1   5.1   3.5   1.4   0.2 setosa
##  2   4.9   3     1.4   0.2 setosa
##  3   4.7   3.2   1.3   0.2 setosa
##  4   4.6   3.1   1.5   0.2 setosa
##  5   5     3.6   1.4   0.2 setosa
##  6   5.4   3.9   1.7   0.4 setosa
##  7   4.6   3.4   1.4   0.3 setosa
##  8   5     3.4   1.5   0.2 setosa
##  9   4.4   2.9   1.4   0.2 setosa
## 10   4.9   3.1   1.5   0.1 setosa
## # ... with 140 more rows
…
